Assignment3/isim.log
ISim log file
Running: D:\VLSI\Assignment3\model_test_bench_isim_beh.exe -intstyle ise -gui -tclbatch isim.cmd -wdb D:/VLSI/Assignment3/model_test_bench_isim_beh.wdb 
ISim P.20131013 (signature 0x7708f090)
WARNING: A WEBPACK license was found.
WARNING: Please use Xilinx License Configuration Manager to check out a full ISim license.
WARNING: ISim will run in Lite mode. Please refer to the ISim documentation for more information on the differences between the Lite and the Full version.
This is a Lite version of ISim.
Time resolution is 1 ps
# onerror resume
# wave add /
# run 1000 ns
Simulator is doing circuit initialization process.
Finished circuit initialization process.
Time = 0, clk = 0, five_coin = x, ten_coin = x, bottle = x, change = x

Time = 25, clk = 0, five_coin = 0, ten_coin = 0, bottle = x, change = x

Time = 50, Init @S0

Time = 50, clk = 1, five_coin = 0, ten_coin = 0, bottle = 0, change = 0

Time = 100, clk = 0, five_coin = 0, ten_coin = 0, bottle = 0, change = 0

Time = 125, clk = 0, five_coin = 1, ten_coin = 0, bottle = 0, change = 0

Time = 150, Changing from S0 to S1

Time = 150, clk = 1, five_coin = 1, ten_coin = 0, bottle = 0, change = 0

Time = 200, clk = 0, five_coin = 1, ten_coin = 0, bottle = 0, change = 0

Time = 250, Changing from S1 to S2

Time = 250, clk = 1, five_coin = 1, ten_coin = 0, bottle = 0, change = 0

Time = 300, clk = 0, five_coin = 1, ten_coin = 0, bottle = 0, change = 0

Time = 350, Changing from S2 to S0

Time = 350, clk = 1, five_coin = 1, ten_coin = 0, bottle = 1, change = 0

Time = 400, clk = 0, five_coin = 1, ten_coin = 0, bottle = 1, change = 0

Time = 425, clk = 0, five_coin = 0, ten_coin = 1, bottle = 1, change = 0

Time = 450, Changing from S0 to S2

Time = 450, clk = 1, five_coin = 0, ten_coin = 1, bottle = 0, change = 0

Time = 500, clk = 0, five_coin = 0, ten_coin = 1, bottle = 0, change = 0

Time = 525, clk = 0, five_coin = 1, ten_coin = 0, bottle = 0, change = 0

Time = 550, Changing from S2 to S0

Time = 550, clk = 1, five_coin = 1, ten_coin = 0, bottle = 1, change = 0

Time = 600, clk = 0, five_coin = 1, ten_coin = 0, bottle = 1, change = 0

Time = 625, clk = 0, five_coin = 0, ten_coin = 1, bottle = 1, change = 0

Time = 650, Changing from S0 to S2

Time = 650, clk = 1, five_coin = 0, ten_coin = 1, bottle = 0, change = 0

Time = 700, clk = 0, five_coin = 0, ten_coin = 1, bottle = 0, change = 0

Time = 750, Changing from S2 to S0

Time = 750, clk = 1, five_coin = 0, ten_coin = 1, bottle = 1, change = 1

Time = 800, clk = 0, five_coin = 0, ten_coin = 1, bottle = 1, change = 1

Time = 850, Changing from S0 to S2

Time = 850, clk = 1, five_coin = 0, ten_coin = 1, bottle = 0, change = 0

Time = 900, clk = 0, five_coin = 0, ten_coin = 1, bottle = 0, change = 0

Time = 950, Changing from S2 to S0

Time = 950, clk = 1, five_coin = 0, ten_coin = 1, bottle = 1, change = 1

Time = 1000, clk = 0, five_coin = 0, ten_coin = 1, bottle = 1, change = 1

